[
    {
        "id": "introduction",
        "title": "Introduction",
        "description": "The Hubble API lets you view and manage data like accounts, subscriptions, invoices, transactions, and plans.\n\nThe Hubble API is basically a REST API. It has predictable resource-oriented URLs, accepts form-encoded request bodies, returns JSON-encoded responses, and uses standard HTTP response codes, authentication, and verbs.",
        "snippetTitle": "BASE URL",
        "snippetContent": "https://api.hubblesuite.com",
        "sections": [
            {
                "title": "Authentication",
                "content": "The Hubble API uses API keys to authenticate requests. It uses bearer authentication for its HTTP authentication scheme. You can view and manage your API keys in the Hubble Console.\n\nAPI keys provide access to senstivie information. Therefore, be sure to keep them secure! Do not share your API keys in places such as GitHub, client-side code, and so on.\n\nAll API requests must be made over HTTPS. Calls made over plain HTTP will fail. API requests without authentication will also fail.",
                "generalSnippet": false,
                "snippetTitle": "REQUEST WITH AUTHENTICATION",
                "snippets": [
                    {
                        "language": "curl",
                        "content": "curl -H \"Authorization: Bearer eyJhbGciOiJIUzI1NiIsInR5cCI6IkpXVCJ9.eyJpZGVudGlmaWVyIjoiNWY1ZGRkMjM5YWJkYTkxY2YwZWI3YzRiIiwiaWF0IjoxNjAwMTgzOTY5LCJleHAiOjE2MDA3ODg3NjksImF1ZCI6Im5vZGVqcy1qd3QtYXV0aCIsImlzcyI6Imh0dHBzOi8vd3d3Lmh1YmJsZXN1aXRlLmNvbSJ9.qmKq_e0I_0XVh3YYqBUOrUu6_tH16-EijedmJtK-EFg\""
                    }
                ]
            },
            {
                "title": "Errors",
                "content": "The Hubble API uses HTTP response codes to indicate the success or failure of a request."
            },
            {
                "title": "Pagination",
                "content": "Most resources have support for bulk fetches via \"list\" API methods. For instance, you can list accounts, list subscriptions, list invoices, and so on. These list API methods share a common structure for requests and responses. The common attributes in responses include:`totalRecords`, `page`, `limit`, `totalPages`, `previousPage`, and `nextPage`.\n\nSimiarly, the common parameters in requests include: `page` and `limit`, based on which Hubble internally implements a cursor based pagination scheme. Further, some endpoints accept optional filters like `dateRange`, `startDate`, `endDate`, and `search`.",
                "snippetTitle": "SAMPLE RESPONSE",
                "generalSnippet": true,
                "snippets": [
                    {
                        "language": null,
                        "content": "```json\n{\r\n    \"totalRecords\": 193,\r\n    \"page\": 0,\r\n    \"limit\": 20,\r\n    \"previousPage\": null,\r\n    \"nextPage\": 1,\r\n    \"records\": [ ... ]\r\n}\n```"
                    }
                ],
                "formats": [
                    {
                        "title": "Request",
                        "description": "",
                        "items": [
                            {
                                "name": "page",
                                "type": "integer",
                                "description": "The number of the page you want to retrieve. It is zero based. The first page is at 0, the second at 1, and so on."
                            },
                            {
                                "name": "limit",
                                "type": "integer",
                                "description": "The maximum number of records you want to retrieve, between 10 and 100."
                            }
                        ]
                    },
                    {
                        "title": "Response",
                        "description": "",
                        "items": [
                            {
                                "name": "page",
                                "type": "integer",
                                "description": "The current page number. It is zero based. The first page is at 0, the second at 1, and so on."
                            },
                            {
                                "name": "totalRecords",
                                "type": "integer",
                                "description": "The total number of records."
                            },
                            {
                                "name": "limit",
                                "type": "integer",
                                "description": "The maximum number of records you want to retrieve, between 10 and 100."
                            },
                            {
                                "name": "totalPages",
                                "type": "integer",
                                "description": "The total number of pages based on `limit` and `totalRecords`."
                            },
                            {
                                "name": "previousPage",
                                "type": "integer",
                                "description": "The previous zero based page number, if any. Otherwise it is `null`."
                            },
                            {
                                "name": "nextPage",
                                "type": "integer",
                                "description": "The next zero based page number, if any. Otherwise it is `null`."
                            },
                            {
                                "name": "records",
                                "type": "array",
                                "description": "An array of records you requested."
                            }
                        ]
                    }
                ]
            }
        ]
    },
    {
        "id": "accounts",
        "title": "Accounts",
        "description": "The account object represents your customer and stores all their information. You can access other objects such subscriptions, transactions, and invoices through it.",
        "snippetTitle": "ENDPOINTS",
        "snippetContent": "```\nPOST /accounts\nGET /accounts\nGET /accounts/:id\nPUT /accounts/:id\n```",
        "sections": [
            {
                "title": "Account Object Schema",
                "content": "All the account endpoints adhere to the schema described here.",
                "generalSnippet": true,
                "snippetTitle": "SAMPLE ACCOUNT OBJECT",
                "snippets": [
                    {
                        "language": null,
                        "content": "```json\n{\r\n    \"id\": \"5f6190b1966a8f0fd205a00a\",\r\n    \"subscriptionIds\": [],\r\n    \"userName\": \"anushka\",\r\n    \"firstName\": \"Anushka\",\r\n    \"lastName\": \"Madyanam\",\r\n    \"emailAddress\": \"anushka@hubblesuite.com\",\r\n    \"phoneNumber\": \"+91 XXXXXXXXXX\",\r\n    \"addressLine1\": \"Flat 03, JVM Residency\",\r\n    \"addressLine2\": \"19th Cross, JS Town\",\r\n    \"city\": \"Bengaluru\",\r\n    \"state\": \"Karnataka\",\r\n    \"country\": \"India\",\r\n    \"zipCode\": \"560033\",\r\n    \"createdAt\": \"2020-09-16T04:12:33.784Z\",\r\n    \"updatedAt\": \"2020-09-16T04:12:33.784Z\"\r\n}\n```"
                    }
                ],
                "formats": [
                    {
                        "title": "Attributes",
                        "description": "",
                        "items": [
                            {
                                "name": "id",
                                "type": "string",
                                "description": "A string of 24 hexadecimal digits that uniquely identifies the account across Hubble Subscriptions. It cannot be generated by the client."
                            },
                            {
                                "name": "subscriptionIds",
                                "type": "array",
                                "description": "An array of subscription identifiers. Each identifier represents a subscription owned by the account."
                            },
                            {
                                "name": "userName",
                                "type": "string",
                                "description": "The user name that uniquely identifies the account across your organization."
                            },
                            {
                                "name": "firstName",
                                "type": "string",
                                "description": "The first name of the account holder."
                            },
                            {
                                "name": "lastName",
                                "type": "string",
                                "description": "The last name of the account holder."
                            },
                            {
                                "name": "emailAddress",
                                "type": "string",
                                "description": "The email address of the account holder."
                            },
                            {
                                "name": "phoneNumber",
                                "type": "string",
                                "description": "The phone number of the account holder."
                            },
                            {
                                "name": "addressLine1",
                                "type": "string",
                                "description": "The first address line of the account holder."
                            },
                            {
                                "name": "addressLine2",
                                "type": "string",
                                "description": "The second address line of the account holder."
                            },
                            {
                                "name": "city",
                                "type": "string",
                                "description": "The city of the account holder."
                            },
                            {
                                "name": "state",
                                "type": "string",
                                "description": "The state of the account holder."
                            },
                            {
                                "name": "country",
                                "type": "string",
                                "description": "The country of the account holder."
                            },
                            {
                                "name": "zipCode",
                                "type": "string",
                                "description": "The zip code of the account holder."
                            },
                            {
                                "name": "createdAt",
                                "type": "string",
                                "description": "The time when the account was created, expressed in UTC format."
                            },
                            {
                                "name": "updatedAt",
                                "type": "string",
                                "description": "The time when the account was last updated, expressed in UTC format."
                            }
                        ]
                    }
                ]
            }
        ]
    },
    {
        "id": "subscriptions",
        "title": "Subscriptions",
        "description": "A subscription represents an arrangement for regular payments. Basically, it is an association between a plan and an account, where the plan tells Hubble Subscriptions how much to bill the customer.",
        "snippetTitle": "ENDPOINTS",
        "snippetContent": "```\nPOST /subscriptions\nGET /subscriptions\nGET /subscriptions/:id\n```",
        "sections": [
            {
                "title": "Subscription Object Schema",
                "content": "All the subscription endpoints adhere to the schema described here.",
                "generalSnippet": true,
                "snippetTitle": "SAMPLE SUBSCRIPTION OBJECT",
                "snippets": [
                    {
                        "language": null,
                        "content": "```json\n{\r\n    \"id\": \"5f6190b1966a8f0fd205a00a\",\r\n    \"subscriptionIds\": [],\r\n    \"userName\": \"anushka\",\r\n    \"firstName\": \"Anushka\",\r\n    \"lastName\": \"Madyanam\",\r\n    \"emailAddress\": \"anushka@hubblesuite.com\",\r\n    \"phoneNumber\": \"+91 XXXXXXXXXX\",\r\n    \"addressLine1\": \"Flat 03, JVM Residency\",\r\n    \"addressLine2\": \"19th Cross, JS Town\",\r\n    \"city\": \"Bengaluru\",\r\n    \"state\": \"Karnataka\",\r\n    \"country\": \"India\",\r\n    \"zipCode\": \"560033\",\r\n    \"createdAt\": \"2020-09-16T04:12:33.784Z\",\r\n    \"updatedAt\": \"2020-09-16T04:12:33.784Z\"\r\n}\n```"
                    }
                ],
                "formats": [
                    {
                        "title": "Attributes",
                        "description": "",
                        "items": [
                            {
                                "name": "id",
                                "type": "string",
                                "description": "A string of 24 hexadecimal digits that uniquely identifies the subscription across Hubble Subscriptions. It cannot be generated by the client."
                            },
                            {
                                "name": "ownerId",
                                "type": "string",
                                "description": "A string of 24 hexadecimal digits that identifies the organization that owns the subscription."
                            },
                            {
                                "name": "planId",
                                "type": "string",
                                "description": "A string of 24 hexadecimal digits that identifies the associated plan."
                            },
                            {
                                "name": "accountId",
                                "type": "string",
                                "description": "A string of 24 hexadecimal digits that identifies the associated account."
                            },
                            {
                                "name": "quantity",
                                "type": "number",
                                "description": "The quantity of service given to the customer."
                            },
                            {
                                "name": "billingPeriod",
                                "type": "integer",
                                "description": "The billing period."
                            },
                            {
                                "name": "billingPeriodUnit",
                                "type": "string",
                                "description": "The unit of the billing period."
                            },
                            {
                                "name": "setupFee",
                                "type": "number",
                                "description": "The initial fee charged at the beginning of the subscription."
                            },
                            {
                                "name": "trialPeriod",
                                "type": "integer",
                                "description": "The trial period."
                            },
                            {
                                "name": "trialPeriodUnit",
                                "type": "string",
                                "description": "The unit of the trial period."
                            },
                            {
                                "name": "term",
                                "type": "integer",
                                "description": "The term."
                            },
                            {
                                "name": "termUnit",
                                "type": "string",
                                "description": "The unit of the term."
                            },
                            {
                                "name": "renews",
                                "type": "boolean",
                                "description": "Determines whether the subscription will be renewed or expired after the term ends."
                            },
                            {
                                "name": "startsAt",
                                "type": "string",
                                "description": "The requested time when the subscription starts, expressed in UTC format. This attribute is a guideline to Hubble. The actual activation time may be delayed by a few seconds to minutes."
                            },
                            {
                                "name": "activatedAt",
                                "type": "string",
                                "description": "The time when Hubble activated the subscription, expressed in UTC format."
                            },
                            {
                                "name": "cancelledAt",
                                "type": "string",
                                "description": "The time when the subscription was canclled, expressed in UTC format."
                            },
                            {
                                "name": "pausedAt",
                                "type": "string",
                                "description": "The time when the subscription was paused, expressed in UTC format."
                            },
                            {
                                "name": "currentPeriodStart",
                                "type": "string",
                                "description": "The time when the current period started, expressed in UTC format."
                            },
                            {
                                "name": "currentPeriodEnd",
                                "type": "string",
                                "description": "The time when the current period ends, expressed in UTC format."
                            },
                            {
                                "name": "createdAt",
                                "type": "string",
                                "description": "The time when the subscription was created, expressed in UTC format."
                            },
                            {
                                "name": "updatedAt",
                                "type": "string",
                                "description": "The time when the subscription was last updated, expressed in UTC format."
                            }
                        ]
                    }
                ]
            }
        ]
    },
    {
        "id": "transactions",
        "title": "Transactions",
        "description": "A transaction includes the billing information of a customer and the amount of money to be charged, voided, or refunded.",
        "snippetTitle": "ENDPOINTS",
        "snippetContent": "```\nPOST /transactions\nGET /transactions\nGET /transactions/:id\nPUT /transactions/:id\n```",
        "sections": [
            {
                "title": "Transaction Object Schema",
                "content": "All the transaction endpoints adhere to the schema described here.",
                "generalSnippet": true,
                "snippetTitle": "SAMPLE TRANSACTION OBJECT",
                "snippets": [
                    {
                        "language": null,
                        "content": "```json\n{\r\n    \"id\": \"5f5cd455cca2c3110c3da225\",\r\n    \"amount\": 1000,\r\n    \"tax\": 300,\r\n    \"comments\": \"This is a sample comment.\",\r\n    \"action\": \"purchase\",\r\n    \"referenceId\": \"5f562badf9337e1bdf1d06c2\",\r\n    \"paymentMethod\": \"cash\",\r\n    \"ownerId\": \"5f524647e71efd182a26692a\",\r\n    \"createdAt\": \"2020-09-12T13:59:49.023Z\"\r\n}\n```"
                    }
                ],
                "formats": [
                    {
                        "title": "Attributes",
                        "description": "",
                        "items": [
                            {
                                "name": "id",
                                "type": "string",
                                "description": "A string of 24 hexadecimal digits that uniquely identifies the transaction across Hubble Subscriptions. It cannot be generated by the client."
                            },
                            {
                                "name": "amount",
                                "type": "number",
                                "description": "The amount of money involved in this transaction."
                            },
                            {
                                "name": "tax",
                                "type": "number",
                                "description": "The tax applied to this transaction."
                            },
                            {
                                "name": "comments",
                                "type": "string",
                                "description": "The comments on this transaction."
                            },
                            {
                                "name": "action",
                                "type": "string",
                                "description": "Type type of transaction. It can be one of: `purchase`, `refund`, and `verify`."
                            },
                            {
                                "name": "referenceId",
                                "type": "string",
                                "description": "A string of 24 hexadecimal digits that identifies the object associated with this transaction."
                            },
                            {
                                "name": "paymentMethod",
                                "type": "string",
                                "description": "The payment method used to transact the money. It can be one of: `cash`, `credit_card`, `debit_card`, and `online`."
                            },
                            {
                                "name": "createdAt",
                                "type": "string",
                                "description": "The time when the transaction was created, expressed in UTC format."
                            },
                            {
                                "name": "updatedAt",
                                "type": "string",
                                "description": "The time when the transaction was last updated, expressed in UTC format."
                            }
                        ]
                    }
                ]
            }
        ]
    },
    {
        "id": "plans",
        "title": "Plans",
        "description": "A plan is a blueprint for a subscription. It tells Hubble how often and how much to charge your subscribers. Plans can include free trials, add-ons, setup fees, and much more.",
        "snippetTitle": "ENDPOINTS",
        "snippetContent": "```\nPOST /plans\nGET /plans\nGET /plans/:id\n```",
        "sections": [
            {
                "title": "Plan Object Schema",
                "content": "All the plan endpoints adhere to the schema described here.",
                "generalSnippet": true,
                "snippetTitle": "SAMPLE SUBSCRIPTION OBJECT",
                "snippets": [
                    {
                        "language": null,
                        "content": "```json\n{\r\n    \"id\": \"5f5630036bd8a024377357fa\",\r\n    \"setupFee\": 2000,\r\n    \"trialPeriod\": 30,\r\n    \"trialPeriodUnit\": \"days\",\r\n    \"term\": 360,\r\n    \"termUnit\": \"days\",\r\n    \"renews\": true,\r\n    \"name\": \"Enterprise\",\r\n    \"code\": \"entr\",\r\n    \"description\": \"This is a sample plan.\",\r\n    \"billingPeriod\": 30,\r\n    \"billingPeriodUnit\": \"days\",\r\n    \"pricePerBillingPeriod\": 10000,\r\n    \"ownerId\": \"5f524647e71efd182a26692a\",\r\n    \"createdAt\": \"2020-09-07T13:05:07.521Z\",\r\n    \"updatedAt\": \"2020-09-07T13:05:07.521Z\"\r\n}\n```"
                    }
                ],
                "formats": [
                    {
                        "title": "Attributes",
                        "description": "",
                        "items": [
                            {
                                "name": "id",
                                "type": "string",
                                "description": "A string of 24 hexadecimal digits that uniquely identifies the plan across Hubble Subscriptions. It cannot be generated by the client."
                            },
                            {
                                "name": "name",
                                "type": "string",
                                "description": "The name of the plan."
                            },
                            {
                                "name": "code",
                                "type": "string",
                                "description": "The code name of the plan. It should be unique within your organization."
                            },
                            {
                                "name": "description",
                                "type": "string",
                                "description": "A brief description of the plan."
                            },
                            {
                                "name": "billingPeriod",
                                "type": "string",
                                "description": "The billing period of the plan."
                            },
                            {
                                "name": "billingPeriodUnit",
                                "type": "string",
                                "description": "The unit of the billing period."
                            },
                            {
                                "name": "pricePerBillingPeriod",
                                "type": "string",
                                "description": "The price charged per billing period."
                            },
                            {
                                "name": "setupFee",
                                "type": "string",
                                "description": "The initial fee charged at the beginning of the subscription."
                            },
                            {
                                "name": "trialPeriod",
                                "type": "string",
                                "description": "The trial period."
                            },
                            {
                                "name": "trialPeriodUnit",
                                "type": "string",
                                "description": "The unit of the trial period."
                            },
                            {
                                "name": "term",
                                "type": "integer",
                                "description": "The term of the subscription."
                            },
                            {
                                "name": "termUnit",
                                "type": "string",
                                "description": "The unit of the term."
                            },
                            {
                                "name": "renews",
                                "type": "boolean",
                                "description": "Determines whether the subscription will be renewed or expired after the term ends."
                            },
                            {
                                "name": "createdAt",
                                "type": "string",
                                "description": "The time when the plan was created, expressed in UTC format."
                            },
                            {
                                "name": "updatedAt",
                                "type": "string",
                                "description": "The time when the plan was last updated, expressed in UTC format."
                            }
                        ]
                    }
                ]
            }
        ]
    }
]
